<?xml version="1.0" encoding="utf-8"?>
<!-- Generator: Adobe Illustrator 25.2.0, SVG Export Plug-In . SVG Version: 6.00 Build 0)  -->
<svg version="1.1" id="Laag_1" xmlns="http://www.w3.org/2000/svg" xmlns:xlink="http://www.w3.org/1999/xlink" x="0px" y="0px"
	 viewBox="0 0 592.11 353.23" style="enable-background:new 0 0 592.11 353.23;" xml:space="preserve">
<style type="text/css">
	.st0{fill:#FFF265;}
	.st1{fill:none;stroke:#FFF265;stroke-width:0.889;}
	.st2{fill:none;stroke:#FFF265;stroke-width:0.653;}
	.st3{fill:none;stroke:#FFF265;stroke-width:0;}
</style>
<g>
	<path class="st0" d="M110.29,99.36c3.97,0,6.46-3.78,6.46-7.08c0-2.63-1.66-5.1-5.46-5.1c-3.31,0-6.46,1.15-9.6,3.13
		c-8.61-3.29-22.69-5.6-37.26-5.6c-25.17,0-48.02,10.37-48.02,27.65c0,9.38,7.78,17.61,18.71,17.61c7.29,0,10.6-2.96,11.92-4.94
		c0.83-1.15,0.33-2.63-0.17-3.29c-1.82-1.81-3.97-2.63-3.97-7.08c0-11.03,25.5-16.46,43.39-16.46c1.99,0,4.14,0,5.96,0.16
		c-8.78,9.55-17.22,24.03-25.83,37.69c-7.78-0.16-9.44-0.82-12.92-0.82c-6.46,0-9.11,5.1-9.11,8.23c0,2.47,1.82,2.63,1.82,2.63
		s5.13,0.99,12.75,1.48c-9.61,14.48-19.54,25.84-29.81,25.84c-12.42,0-14.41-9.38-15.4-12.84c-0.33-0.82-0.99-1.32-2.48-1.32
		C5.13,159.26,0,169.63,0,178.03c0,12.01,8.11,25.35,27.65,25.35c24.01,0,40.9-28.97,53.98-56.29
		C81.64,147.09,103.66,99.36,110.29,99.36"/>
	<path class="st0" d="M77.54,151.75c1.08,0.53,1.16,1.16,1.59,1.73c1.46,1.94,2.3,4.36,4.79,5.8c3.91,2.26,7.43,2.9,7.43,2.9
		s4.49,1.15,7.06-0.63c1.81-1.26,2.78-1.92,3.53-4.66c0.49-1.81,1.23-4.76,2.16-4.42c17.85,0-8.37,27.05-8.37,40.51
		c0,7.44,9.65,10.47,18.89,10.47c15.3,0,25.02-18.37,29.8-28.19l-5.9-2.22c0,0-12.99,13.76-16.5,13.76c-2.07,0-2.87-1.11-2.87-2.85
		c0-10.93,22.79-36.74-10.04-36.74c-1.12,0-2.23,0.16-3.35,0.16c0.96-1.9,1.75-5.23,1.75-7.92c0-3.01-1.12-5.54-4.94-5.54
		c-5.58,0-9.56,6.02-9.56,11.09c0,3.17,1.75,5.86,4.94,6.49c-0.8,2.53-5.37,1.92-8.62,0.24c-3.54-1.83-4.53-5.89-5.8-8.19
		c-2.25-4.09-5.04-4.25-5.04-4.25"/>
</g>
<g>
	<path class="st0" d="M229.75,122.16c0.46-1.98,1.84-2.89,3.37-2.89c4.44,0,11.8,4.42,9.96,9.75c-1.69,4.42-11.03,19.95-17.16,19.95
		c-2.6,0-4.6-2.89-3.37-5.79C224.39,138.61,227.3,137.09,229.75,122.16z"/>
	<path class="st0" d="M238.64,189.63c0-8.98,7.35-27.41,14.56-41.73h-8.58c0,0-2.76-7.16,2.76-7.16h9.65
		c4.29-7.77,8.12-13.1,9.81-13.1c2.91,0,13.02,0.91,13.02,8.53c0,0.76-0.61,2.44-1.53,4.57h6.59c0,0,1.69,7.16-3.83,7.16h-6.13
		c-7.05,14.31-18.39,35.79-11.95,35.79c5.06,0,11.49-10.66,11.49-10.81l5.67,1.98c-4.44,9.59-13.18,27.26-30.49,27.26
		C242.62,202.11,238.64,196.93,238.64,189.63z"/>
	<path class="st0" d="M290.73,145.92c2.91,0,13.02,1.37,13.02,8.68c0,5.18-16.7,29.09-7.66,29.09c3.52,0,12.87-14.62,15.17-18.43
		c5.06-10.51,11.19-19.34,13.03-19.34c2.91,0,13.02,1.37,13.02,8.68c0,5.18-16.7,29.09-7.66,29.09c5.06,0,11.49-10.66,11.49-10.81
		l5.67,1.98c-4.44,9.59-13.18,27.26-30.34,27.26c-8.89,0-12.1-5.33-12.1-12.64c0-1.22,0.15-2.44,0.31-3.65
		c-6.44,8.68-14.1,16.29-21.76,16.29c-9.04,0-12.26-5.33-12.26-12.64C270.66,173.48,287.36,145.92,290.73,145.92z"/>
	<path class="st0" d="M357.39,145.92c2.91,0,13.02,1.37,13.02,8.68c0,5.18-16.7,29.09-7.66,29.09c3.52,0,12.87-14.62,15.17-18.43
		c5.06-10.51,11.19-19.34,13.02-19.34c2.91,0,13.02,1.37,13.02,8.68c0,5.18-16.7,29.09-7.66,29.09c5.06,0,11.49-10.66,11.49-10.81
		l5.67,1.98c-4.44,9.59-13.18,27.26-30.34,27.26c-8.89,0-12.1-5.33-12.1-12.64c0-1.22,0.15-2.44,0.31-3.65
		c-6.44,8.68-14.1,16.29-21.76,16.29c-9.04,0-12.26-5.33-12.26-12.64C337.31,173.48,354.01,145.92,357.39,145.92z"/>
	<path class="st0" d="M414.84,143.48c0-4.87,3.83-10.66,9.19-10.66c3.68,0,4.75,2.44,4.75,5.33c0,2.59-0.77,5.79-1.69,7.61
		c1.07,0,2.15-0.15,3.22-0.15c31.57,0,9.65,24.82,9.65,35.33c0,1.67,0.77,2.74,2.76,2.74c3.37,0,9.81-10.81,9.81-10.81l5.67,2.13
		c-4.6,9.44-13.94,27.11-28.65,27.11c-8.89,0-12.11-5.33-12.11-12.49c0-12.94,24.67-38.98,7.51-38.98
		c-3.83,8.22-11.8,24.97-11.8,24.97l-5.36-2.74c3.68-6.24,11.03-20.71,11.8-23.15C416.53,149.12,414.84,146.53,414.84,143.48z"/>
	<path class="st0" d="M455.75,202.26c-8.12,0-13.94-2.74-12.41-7.61c7.81-24.37,32.94-70.51,37.39-70.51
		c3.06,0,13.02,1.37,13.02,8.83c0,1.83-4.14,10.51-9.35,21.02c4.9-3.66,12.26-8.07,19.46-8.07c5.82,0,11.34,2.74,11.34,10.2
		c0,12.64-12.26,21.93-24.21,21.93c-1.38,0-2.6,0-3.98-0.3c3.37,6.4,9.04,9.29,13.79,9.29c7.2,0,13.03-5.63,18.08-14.16l5.67,2.13
		c-0.61,1.07-10.57,26.95-32.33,26.95c-16.86,0-20.38-15.08-21.15-22.39c-5.36,10.36-10.11,19.19-11.65,22.54
		C458.21,202.26,456.98,202.26,455.75,202.26z M477.97,168.91c1.07,0.46,2.3,0.76,3.52,0.76c7.97,0,18.54-8.68,18.54-12.33
		c0-0.91-0.31-2.59-2.3-2.59C489.01,154.75,477.97,168.91,477.97,168.91z"/>
	<path class="st0" d="M564.39,158.26c0,10.66-12.72,19.49-22.52,19.49c-1.53,0-2.91-0.15-4.14-0.61c0.92,5.94,5.06,8.38,9.96,8.38
		c7.05,0,16.09-5.33,19.92-12.64l5.67,2.13c0,0-12.41,27.11-35.7,27.11c-14.71,0-20.84-8.22-20.84-18.27
		c0-16.45,15.78-37.92,35.86-37.92C560.41,145.92,564.39,151.55,564.39,158.26z M552.44,154.3c-3.98,0-12.1,6.7-14.25,15.99
		c0.31,0.15,0.77,0.15,1.23,0.15c5.52,0,14.86-8.22,15.32-13.25C554.74,155.21,553.97,154.3,552.44,154.3z"/>
	<path class="st0" d="M578.49,122.16c0.46-1.98,1.84-2.89,3.37-2.89c4.44,0,11.8,4.42,9.96,9.75c-1.69,4.42-11.03,19.95-17.16,19.95
		c-2.61,0-4.6-2.89-3.37-5.79C573.12,138.61,576.04,137.09,578.49,122.16z"/>
</g>
<g>
	<path class="st0" d="M210.41,158.88c0,10.66-12.72,19.49-22.52,19.49c-1.53,0-2.91-0.15-4.14-0.61c0.92,5.94,5.06,8.38,9.96,8.38
		c7.05,0,16.09-5.33,19.92-12.64l5.67,2.13c0,0-12.41,27.11-35.7,27.11c-14.71,0-20.84-8.22-20.84-18.27
		c0-16.45,15.78-37.92,35.86-37.92C206.42,146.55,210.41,152.18,210.41,158.88z M198.46,154.93c-3.98,0-12.1,6.7-14.25,15.99
		c0.31,0.15,0.77,0.15,1.23,0.15c5.52,0,14.86-8.22,15.32-13.25C200.75,155.84,199.99,154.93,198.46,154.93z"/>
</g>
<g>
	<path class="st0" d="M157.14,194.32c0,0,2.17-1.65,4.8-4.34c2.63-2.69,2.75-8.8,2.75-8.8s0.2-1.41,0.2-1.46
		c0.01-0.05-4.47,3.74-4.96,4.28c-0.49,0.54-3.25,5.08-3.25,5.08L157.14,194.32z"/>
	<path class="st0" d="M142.52,203.49c15.7,0,23.68-16.02,27.75-24.79l-5.18-1.95c0,0.14-5.89,9.89-10.51,9.89
		c-8.27,0,7.01-20.06,7.01-26.6c0-6.68-9.25-7.94-11.91-7.94c-3.08,0-18.36,25.21-18.36,39.83
		C131.31,198.61,134.25,203.49,142.52,203.49 M174.47,139c0-2.23-0.56-8.22-7.85-8.22c-9.25,0-12.61,8.22-12.61,11.28
		c0,3.06,0.98,7.66,8.83,7.66C170.97,149.72,174.47,142.2,174.47,139"/>
	<g>
		<path class="st0" d="M148,244.68c-1.28-2.9-1.41-5.59,0.7-5.86c8.11-0.81,30.62,0.57,31.34,2.21c0.48,1.1,1.53,4.82-1.15,6.05
			c-0.66,0.29-5.09,0.21-10.43,0c3.25,1.12,6.02,2.65,6.93,4.74c1.25,2.85-1.18,5.09-2.86,5.89c-5.02,2.46-17.44,2.87-21.05-5.35
			c-0.99-2.25-0.09-4.53,0.8-6.1c-1.63-0.13-2.89-0.17-3.62-0.18C148.41,245.6,148.2,245.11,148,244.68z M157.99,246.51
			c-0.14,0.13-0.82,0.82-0.39,1.8c2,4.55,12.89,5.59,13.77,2.98c-1.2-2.74-10.77-4.36-13.25-4.78
			C158.07,246.54,157.99,246.51,157.99,246.51z"/>
	</g>
	<g>
		<path class="st0" d="M163.81,266.68c5.31-3.4,18-3.76,18.71-2.65c0.61,0.96,2.29,4.57-0.14,6.12c-2.38,1.52-13.19,0.69-11.28,3.66
			c1.07,1.66,5.97,1.51,6.02,1.48l0.49,2.31c-4.12,0.58-11.79,1.42-15.41-4.21C160.29,270.42,161.39,268.23,163.81,266.68z
			 M186.42,268.22c-1.81-2.82-0.37-4.24,0.75-4.95c1.11-0.71,4.87-1.41,7.01,1.91c1.68,2.62-0.37,4.21-1.17,4.73
			C191.84,270.65,188.3,271.14,186.42,268.22z"/>
	</g>
	<g>
		<path class="st0" d="M160.71,274.27c1.01,1.34,1.75,2.43,2.04,2.81c0.07,0.1,0.07,0.1,0.11,0.14c3.52-0.31,24.86-5.49,26.26-3.62
			c0.72,0.96,2.62,4.39,0.31,6.12c-1.11,0.83-18.98,4.01-20.94,4.2c6.31,3.21,16,1.42,16.14,1.4l0.66,2.27c-7,0.97-15.09,2-20.79-3
			c-8.77,0.42-14.15-0.94-18.42-6.64c-2.3-3.06-2.4-8,0.63-10.26C151.89,263.82,157.66,270.2,160.71,274.27z M152.02,273.59
			c-0.43,0.32-0.51,0.83-0.15,1.3c0.72,0.96,3,2.69,7.54,2.74C158.22,276.05,154.43,271.79,152.02,273.59z M193.17,277.3
			c-2.01-2.68-0.68-4.2,0.38-4.99c1.06-0.79,4.76-1.76,7.13,1.4c1.87,2.49-0.06,4.23-0.83,4.8
			C198.75,279.34,195.25,280.08,193.17,277.3z"/>
	</g>
	<g>
		<path class="st0" d="M265.52,329.9c-1.26,4-7.06,5.83-10.73,4.69c-0.57-0.18-1.07-0.4-1.47-0.71c-0.36,2.33,0.9,3.73,2.73,4.3
			c2.63,0.82,6.65-0.12,8.94-2.42l1.87,1.46c0,0-7.85,8.72-16.55,6c-5.5-1.71-6.82-5.51-5.63-9.28
			c1.95-6.17,10.39-12.38,17.89-10.04C265.49,324.8,266.31,327.38,265.52,329.9z M261.52,327.02c-1.49-0.46-5.32,1.1-7.22,4.34
			c0.1,0.09,0.27,0.15,0.44,0.2c2.06,0.64,6.53-1.35,7.3-3.18C262.27,327.63,262.09,327.2,261.52,327.02z"/>
	</g>
	<g>
		<path class="st0" d="M286.02,330.19c0.02-0.36,0.05-0.78,0.07-1.14c0.43-7.29,5.23-10.07,8.65-9.87c2.04,0.12,3.65,1.29,3.54,3.26
			c-0.22,3.64-3.61,6.15-7.28,8.1c0.39,3.56,1.6,7.52,3.58,10.57c1.06-1.62,1.92-3.91,1.9-5.65c-0.04-1.32-0.34-3.38-2.02-3.47
			c-0.06,0-0.18-0.07-0.11-0.25c0.36-2.02,2.47-3.04,4.56-2.92c2.16,0.12,4.36,1.51,4.32,4.26c0.1,3.42-3.61,8.19-6.46,10.6
			c1.25,1.15,2.77,1.9,4.45,1.99c5.21,0.3,7.25-2.64,7.55-2.63c3.25,0.91,3.27,10.74-6.98,10.15c-3.66-0.21-7.13-2.38-9.83-5.66
			c-2.57,1.77-5.77,2.97-8.89,2.79c-3.66-0.21-7.26-2.21-7.39-7.26C275.68,338.11,279.59,333.18,286.02,330.19z M283.36,339.51
			c0.04,3.3,2.82,5.14,5.28,5.28c0.48,0.03,0.9-0.01,1.32-0.04c-2.02-3.35-3.41-7.39-3.82-11.55
			C284.62,334.54,283.33,336.93,283.36,339.51z M290.85,327.71c3.57-2.43,4.96-5.59,3.04-5.58
			C291.91,322.13,290.99,324.48,290.85,327.71z"/>
	</g>
	<g>
		<path class="st0" d="M319.42,344.03c-0.85-2.99-0.08-7.07,2.06-7.68c0.52-0.15,0.8-0.04,0.94,0.23c0.75,1.09,2.24,3.72,6.58,2.48
			c7.68-2.19,9.74-22.8,15.01-33.26c-0.65,0.12-1.4,0.34-2.1,0.53c-6.24,1.78-14.59,6.2-13.5,10.06c0.43,1.5,1.2,1.59,2.09,2.08
			c0.22,0.12,0.56,0.65,0.37,1.08c-0.27,0.82-1.13,2.19-3.67,2.91c-3.87,1.1-7.33-0.96-8.28-4.3c-1.7-5.98,5.24-11.88,14.02-14.38
			c5.03-1.43,10.22-2.04,13.55-1.74c0.9-1,1.88-1.72,3.04-2.05c1.33-0.38,2.13,0.26,2.4,1.18c0.34,1.21-0.16,2.72-1.55,3.12
			c-2.71,0.77-3.58,9.36-5.18,18.89l7.16-2.04c1.4-8.92,4.19-18.86,5.34-22.92c0.17-0.49,0.59-0.79,1.22-0.97
			c1.85-0.53,4.96,0.33,4.65,2.97c-0.65,6.72-5,25-3.44,30.46c0.54,1.9,1.3,2.37,2.53,2.08c2.15-0.55,3.4-2.96,4.09-5.58l2.54-0.72
			c-1.74,10.33-4.54,13.23-8.41,14.34c-3.12,0.89-7.33-0.09-8.95-5.79c-0.66-2.3-0.59-5.8-0.12-9.86l-7.34,2.09
			c-1.99,10.33-5.28,20.72-12.9,22.89C324.77,352.09,320.61,348.23,319.42,344.03z"/>
	</g>
	<g>
		<path class="st0" d="M381.27,310.64c2.07,3.64-0.54,9.11-3.88,11.01c-0.52,0.3-1.02,0.51-1.53,0.59c1.47,1.85,3.35,1.88,5.02,0.93
			c2.4-1.36,4.45-4.93,4.33-8.17l2.35-0.37c0,0,1.05,11.66-6.89,16.16c-5.01,2.84-8.7,1.22-10.66-2.21c-3.2-5.62-2-16,4.84-19.88
			C377.51,307.2,379.96,308.35,381.27,310.64z M376.43,311.6c-1.36,0.77-2.82,4.63-1.74,8.21c0.13-0.01,0.29-0.09,0.45-0.18
			c1.88-1.07,3.46-5.68,2.64-7.49C377.39,311.46,376.95,311.3,376.43,311.6z"/>
	</g>
	<g>
		<path class="st0" d="M391.02,318.77c-3.86-5.04-7.8-26.41-6.32-27.53c0.96-0.73,4.33-2.84,6.15-0.46
			c1.27,1.66,3.48,22.54,6.3,20.4c1.62-1.24,1.09-6.09,1.05-6.14l2.28-0.68c0.87,4,2.36,11.59-3.04,15.69
			C395.24,321.73,392.76,321.05,391.02,318.77z"/>
	</g>
	<g>
		<path class="st0" d="M409.77,285.99c2.98,2.95,1.93,8.92-0.79,11.64c-0.42,0.43-0.85,0.77-1.31,0.98
			c1.91,1.39,3.74,0.92,5.09-0.44c1.95-1.95,2.96-5.93,1.98-9.02l2.16-0.98c0,0,4.14,10.95-2.31,17.4
			c-4.07,4.08-8.06,3.5-10.87,0.71c-4.59-4.55-6.22-14.87-0.67-20.44C405.22,283.67,407.9,284.13,409.77,285.99z M405.36,288.2
			c-1.1,1.1-1.48,5.21,0.52,8.38c0.13-0.04,0.25-0.17,0.38-0.3c1.53-1.53,1.82-6.4,0.54-7.92
			C406.25,287.82,405.78,287.78,405.36,288.2z"/>
	</g>
	<g>
		<path class="st0" d="M427.86,291.69c-1.71,2.39-3.54,3.3-5.02,1.88c-6.4-6.09-11.36-17.18-10.6-18.25c0.7-0.98,3.5-3.77,5.8-2.13
			c0.24,0.17,0.69,0.78,1.23,1.68c-0.76-3.48-1.13-7.79,1.06-10.86c5.35-7.38,8.74,6.42,11.04,8.35c0.54,0.38,1.05,0.38,1.51-0.25
			c1.08-1.51-0.88-5.99-0.92-6.02l1.97-1.32c1.93,2.76,5.28,10.95,1.93,15.63c-1.57,2.19-3.98,2.99-6.06,1.58
			c-4.34-2.79-7.63-14.46-8.47-13.29c-1.61,2.24,2.73,12.97,5.62,19.13c0.64,0.96,1.22,1.9,1.73,2.62
			C428.41,290.91,428.14,291.3,427.86,291.69z"/>
	</g>
	<g>
		<path class="st0" d="M429.14,247.06c0.92-2.08,2.71-3,4.12-3.36c-0.98-1.48-1.47-2.61-1.32-2.94c0.46-1.04,2.56-4.44,5.2-3.28
			c1.87,0.82,7.84,10.58,9.27,7.34c0.8-1.81-2.02-5.8-2.08-5.82l1.67-1.69c2.67,3.14,7.68,9,4.96,15.14
			c-1.41,3.18-3.84,3.48-6.48,2.33c-0.77-0.34-1.54-0.81-2.35-1.36c2.49,4.3,4.4,9,3.17,11.79c-1.24,2.79-3.88,3.14-6.91,1.81
			C432.29,264.35,425.54,255.17,429.14,247.06z M438.87,258.4c0.93,0.41,1.38,0.28,1.58-0.16c0.93-1.95-4.99-11.09-5.46-11.95
			c-0.95-0.22-1.79,0.19-2.15,1.02C431.79,249.67,435.19,256.79,438.87,258.4z"/>
	</g>
	<path class="st0" d="M252.05,299.19c1.36,0.8,2.97,0.01,3.63-1.12c0.53-0.9,0.46-2.08-0.84-2.84c-1.13-0.67-2.44-0.91-3.91-0.87
		c-2.28-2.86-6.63-6.48-11.61-9.41c-8.6-5.07-18.5-6.12-21.98-0.22c-1.89,3.21-0.89,7.58,2.85,9.79c2.49,1.47,4.22,1.12,5.07,0.71
		c0.52-0.23,0.64-0.83,0.61-1.16c-0.26-0.99-0.83-1.7,0.07-3.22c2.22-3.77,12.03-0.49,18.14,3.11c0.68,0.4,1.42,0.83,2,1.26
		c-4.92,1.49-10.72,4.74-16.42,7.68c-2.63-1.62-3.06-2.18-4.25-2.88c-2.21-1.3-4.14-0.09-4.77,0.98c-0.5,0.84,0.09,1.27,0.09,1.27
		s1.56,1.37,4.06,3.07c-6.2,3.02-11.88,4.9-15.39,2.83c-4.25-2.5-3.04-6.11-2.68-7.49c0.05-0.35-0.07-0.65-0.58-0.95
		c-2.09-1.23-5.94,1.28-7.62,4.14c-2.42,4.11-2.33,10.3,4.35,14.23c8.21,4.83,19.81-1.67,29.78-8.37
		C232.65,309.73,249.79,297.85,252.05,299.19"/>
	<path class="st0" d="M230.31,310.5c0.26,0.4,0.16,0.63,0.19,0.91c0.11,0.96-0.09,1.95,0.47,2.95c0.88,1.56,1.96,2.49,1.96,2.49
		s1.3,1.3,2.54,1.21c0.87-0.07,1.34-0.1,2.14-0.88c0.53-0.52,1.38-1.38,1.63-1.08c6.1,3.59-8.31,7.56-11.02,12.16
		c-1.5,2.54,1.19,5.52,4.35,7.38c5.23,3.08,12.25-1.24,15.86-3.64l-1.57-1.95c0,0-7.21,2.09-8.41,1.38
		c-0.71-0.42-0.76-0.96-0.41-1.55c2.2-3.73,15.18-7.97,3.97-14.58c-0.38-0.22-0.79-0.39-1.18-0.62c0.71-0.46,1.65-1.43,2.19-2.35
		c0.6-1.03,0.73-2.12-0.57-2.89c-1.91-1.12-4.48,0.13-5.5,1.86c-0.64,1.08-0.58,2.36,0.38,3.21c-0.78,0.71-2.22-0.42-2.99-1.65
		c-0.84-1.34-0.36-2.93-0.33-3.97c0.05-1.85-0.87-2.47-0.87-2.47"/>
	<path class="st0" d="M159.57,258.26c0,0-0.2,6.88,4.95,8.46c5.16,1.58-2.18,2.25-2.18,2.25s1.7,2.38-0.94,0.21
		c-2.64-2.18-8.51-8.36-4.68-12.64C160.55,252.27,159.57,258.26,159.57,258.26"/>
	<path class="st0" d="M366.74,327.42c0,0,1.89-4.18,2.77-4.31c0.88-0.13,1.01,0.88,1.01,0.88l-1.36,2.9L366.74,327.42z"/>
	<path class="st0" d="M400.51,304.51c0,0,0.67-1.99,1.12-2.52c0.46-0.53-0.7-1.41-0.7-1.41s0.8-1.04-0.63-0.28
		c-1.43,0.75-2.12,3.86-2.07,4.76c0.05,0.91,0.89,0.71,0.89,0.71l0.99-0.81L400.51,304.51z"/>
	<path class="st0" d="M417.04,288.68c0,0,0.67-1.99,1.12-2.52c0.46-0.53-0.7-1.41-0.7-1.41s0.8-1.04-0.63-0.28
		c-1.43,0.75-2.12,3.85-2.07,4.76c0.05,0.91,0.89,0.71,0.89,0.71l0.99-0.81L417.04,288.68z"/>
	<path class="st0" d="M433.98,265.04c0,0,0.67-1.99,1.12-2.52c0.46-0.53-0.7-1.41-0.7-1.41s0.8-1.04-0.63-0.28
		c-1.43,0.75-2.12,3.85-2.07,4.76c0.05,0.91,0.89,0.71,0.89,0.71l0.99-0.81L433.98,265.04z"/>
	<path class="st0" d="M387.48,314.95c0,0,0.67-1.99,1.12-2.52c0.46-0.53-0.7-1.41-0.7-1.41s0.8-1.04-0.63-0.28
		c-1.43,0.75-2.12,3.86-2.07,4.76c0.05,0.91,0.89,0.71,0.89,0.71l0.99-0.81L387.48,314.95z"/>
	<path class="st0" d="M210.95,15.31c1.17-0.86,1.1-2.53,0.4-3.51c-0.56-0.79-1.58-1.16-2.7-0.34c-0.98,0.72-1.66,1.74-2.17,3.01
		c-3.24,0.88-7.89,3.24-12.19,6.39c-7.43,5.44-11.96,13.48-8.28,18.64c2,2.8,6.05,3.57,9.27,1.21c2.15-1.58,2.5-3.18,2.47-4.05
		c0-0.52-0.46-0.86-0.75-0.95c-0.92-0.15-1.73,0.07-2.68-1.25c-2.35-3.29,4.02-10.43,9.3-14.3c0.59-0.43,1.22-0.9,1.79-1.24
		c-0.56,4.75,0.04,10.9,0.4,16.84c-2.33,1.63-2.96,1.8-3.99,2.55c-1.91,1.4-1.6,3.49-0.94,4.43c0.53,0.74,1.1,0.39,1.1,0.39
		s1.72-0.82,4.08-2.32c0.25,6.4-0.26,11.94-3.29,14.16c-3.66,2.69-6.25,0.32-7.28-0.5c-0.27-0.17-0.57-0.18-1.01,0.14
		c-1.81,1.33-1.11,5.53,0.67,8.04c2.56,3.59,7.79,5.81,13.56,1.58c7.09-5.19,5.9-17.5,3.94-28.48
		C212.67,35.76,209,16.74,210.95,15.31"/>
	<path class="st0" d="M212.45,38.04c0.43-0.08,0.59,0.1,0.84,0.17c0.84,0.27,1.61,0.8,2.65,0.69c1.64-0.17,2.81-0.74,2.81-0.74
		s1.57-0.63,1.95-1.72c0.27-0.77,0.41-1.17,0.05-2.15c-0.24-0.65-0.65-1.69-0.31-1.79c5.27-3.86,3.29,9.89,6.16,13.91
		c1.59,2.22,5.08,1.04,7.8-0.96c4.51-3.31,3.47-10.9,2.79-14.86l-2.21,0.61c0,0-0.9,6.92-1.94,7.68c-0.61,0.45-1.08,0.29-1.45-0.23
		c-2.33-3.26-1.1-15.9-10.79-8.8c-0.33,0.24-0.62,0.53-0.95,0.77c-0.12-0.77-0.6-1.94-1.17-2.74c-0.64-0.9-1.51-1.41-2.64-0.59
		c-1.65,1.21-1.54,3.86-0.46,5.38c0.67,0.95,1.77,1.37,2.84,0.87c0.3,0.93-1.18,1.74-2.49,1.94c-1.44,0.22-2.59-0.78-3.46-1.19
		c-1.54-0.73-2.39-0.18-2.39-0.18"/>
	<g>
		<path class="st0" d="M238.08,36.93c-2.42-5.81-0.56-18.34,0.66-18.85c1.05-0.44,4.91-1.46,6.02,1.2
			c1.08,2.6-1.63,13.08,1.63,11.72c1.83-0.76,2.54-5.6,2.51-5.66l2.37-0.08c-0.15,4.15-0.66,11.83-6.86,14.41
			C241.15,41.04,239.18,39.59,238.08,36.93z M243.55,14.98c-3.1,1.29-4.25-0.38-4.75-1.59c-0.51-1.22-0.54-5.04,3.11-6.56
			c2.88-1.2,4.09,1.09,4.46,1.98C246.9,10.08,246.76,13.64,243.55,14.98z"/>
	</g>
	<g>
		<path class="st0" d="M267.28,14.1c1.08,4.06-2.84,8.69-6.54,9.68c-0.58,0.15-1.12,0.23-1.63,0.18c0.95,2.17,2.76,2.68,4.61,2.19
			c2.67-0.71,5.54-3.64,6.25-6.81l2.36,0.24c0,0-1.95,11.56-10.76,13.9c-5.56,1.48-8.71-1.04-9.73-4.86
			c-1.66-6.26,2.13-16.01,9.72-18.03C264.52,9.81,266.6,11.55,267.28,14.1z M262.36,13.8c-1.51,0.4-3.9,3.76-3.77,7.51
			c0.13,0.03,0.3-0.02,0.48-0.07c2.08-0.55,4.79-4.62,4.45-6.58C263.32,13.91,262.94,13.64,262.36,13.8z"/>
	</g>
	<g>
		<path class="st0" d="M272.3,25.74c-0.48-3.5,1.39-11.08,3.42-17.04l-3.33,0.45c0,0-1.45-2.65,0.69-2.94l3.74-0.51
			c1.25-3.26,2.45-5.54,3.1-5.63c1.13-0.15,5.1-0.33,5.5,2.64c0.04,0.3-0.11,0.98-0.35,1.86l2.55-0.35c0,0,1.03,2.7-1.1,2.99
			l-2.38,0.32c-1.97,5.96-5.22,14.93-2.73,14.59c1.96-0.27,3.89-4.76,3.88-4.82l2.3,0.47c-1.21,3.98-3.66,11.33-10.37,12.24
			C274.51,30.4,272.69,28.59,272.3,25.74z"/>
	</g>
	<g>
		<path class="st0" d="M289.5,27.55c-2.99-0.16-4.68-1.22-4.33-3.24c1.79-8.67,8.52-18.81,9.84-18.74c1.2,0.07,5.05,0.94,4.9,3.75
			c-0.01,0.18-0.08,0.48-0.29,0.95c2.59-2.44,5.51-4.14,8.56-3.98c4.01,0.22,3.62,3.02,2.52,6.62c2.94-3.38,6.51-6.13,10.17-5.93
			c8.5,0.46-0.38,11.51-0.15,13.86c0.08,0.72,0.42,1.1,1.2,1.15c2.63,0.14,5.08-3.99,5.08-3.99l2.17,0.96
			c-1.61,4.18-6.98,10.31-11.89,10.04c-2.81-0.15-5.25-1.61-5.25-4.97c-0.03-4.92,8.12-13.55,5.54-13.69
			c-3.17-0.17-11.51,11.98-11.94,15.44c-0.22,1.79-2.11,2.47-3.97,2.37c-1.5-0.08-2.96-0.7-3.39-1.69
			c-1.07-4.68,8.05-16.73,6.55-16.82c-3.23-0.18-9.56,10.29-12.93,15.87c-0.34,0.76-0.62,1.47-0.89,2.05
			C290.46,27.6,289.98,27.58,289.5,27.55z"/>
	</g>
	<g>
		<path class="st0" d="M344.36,12.76c2.6,0.72,4.79,3.13,3.81,6.66c-0.66,2.37-2.08,5.02-4.08,7.33c0.2,0.18,0.47,0.32,0.76,0.4
			c1.5,0.42,2.53,0.08,4.53-1.98l1.91,1.4c-2.27,3.04-4.34,4.21-7.34,3.37c-0.75-0.21-1.45-0.59-1.94-1.1
			c-3.11,2.68-7.11,4.31-11.21,3.17c-3-0.83-5.2-4.12-4.22-7.64C329.42,14.14,339.34,11.36,344.36,12.76z M336.97,26.19
			c1.04,0.29,2.49,0.01,3.85-0.86c0.05-0.42,0.11-0.84,0.22-1.25c0.35-1.27,1.65-3.27,3.21-2.84c0.22-0.56,0.45-1.18,0.63-1.82
			c0.5-1.79-0.01-2.87-1.05-3.15c-2.77-0.77-7.22,1.79-8.35,5.89C334.83,24.48,335.58,25.81,336.97,26.19z"/>
	</g>
	<g>
		<path class="st0" d="M348.11,37.06c-2.87-1.37-4.72-3.32-3.3-4.9c5.61-5.89,23.55-19.49,25.17-18.71
			c1.08,0.52,4.31,2.66,3.09,5.34c-0.31,0.65-3.72,3.47-7.9,6.78c3.2-1.26,6.29-1.9,8.35-0.92c2.81,1.35,2.44,4.62,1.69,6.33
			c-2.19,5.13-11.32,13.52-19.43,9.63c-2.22-1.06-3.03-3.38-3.39-5.14c-1.32,0.96-2.3,1.75-2.86,2.22
			C349.03,37.5,348.54,37.26,348.11,37.06z M356.87,31.95c-0.02,0.19-0.09,1.15,0.89,1.62c4.49,2.15,13.42-4.14,12.38-6.7
			c-2.7-1.29-11.01,3.7-13.16,5C356.95,31.92,356.87,31.95,356.87,31.95z"/>
	</g>
	<g>
		<path class="st0" d="M368.96,41.65c3.4-5.3,14.75-10.91,15.86-10.2c0.96,0.62,4,3.21,2.45,5.63c-1.52,2.37-11.68,6.11-8.7,8.02
			c1.67,1.07,6.05-1.11,6.08-1.16l1.42,1.9c-3.5,2.24-10.1,6.2-15.75,2.58C367.33,46.52,367.41,44.07,368.96,41.65z M390.11,33.64
			c-2.83-1.81-2.11-3.7-1.4-4.81s3.83-3.31,7.16-1.17c2.62,1.68,1.44,3.98,0.92,4.79C396.05,33.6,393.04,35.51,390.11,33.64z"/>
	</g>
	<g>
		<path class="st0" d="M404.29,52.56c-2.71,3.2-8.76,2.63-11.68,0.15c-0.46-0.39-0.83-0.78-1.08-1.23
			c-1.24,2.02-0.62,3.79,0.84,5.04c2.1,1.78,6.16,2.47,9.16,1.25l1.15,2.08c0,0-10.6,4.99-17.55-0.9
			c-4.39-3.72-4.12-7.74-1.56-10.76c4.19-4.94,14.36-7.38,20.35-2.3C406.24,47.85,405.99,50.55,404.29,52.56z M401.73,48.35
			c-1.19-1.01-5.32-1.05-8.32,1.19c0.05,0.12,0.19,0.24,0.33,0.36c1.65,1.4,6.53,1.29,7.95-0.1
			C402.18,49.21,402.19,48.74,401.73,48.35z"/>
	</g>
	<g>
		<path class="st0" d="M397.33,63.02c4.66-4.32,25.59-10.3,26.85-8.94c0.82,0.88,3.24,4.03,1.04,6.06
			c-1.54,1.43-22.15,5.64-19.74,8.23c1.38,1.49,6.17,0.49,6.22,0.45l0.89,2.2c-3.91,1.25-11.33,3.47-15.93-1.5
			C394.78,67.51,395.22,64.98,397.33,63.02z"/>
	</g>
	<path class="st0" d="M234.87,31.81c0,0,0.92-4.5,1.75-4.81c0.83-0.32,1.18,0.63,1.18,0.63l-0.69,3.12L234.87,31.81z"/>
	<path class="st0" d="M248.94,25.47c0,0,2.18-4.04,3.07-4.1c0.89-0.07,0.94,0.95,0.94,0.95l-1.56,2.8L248.94,25.47z"/>
</g>
<polygon class="st0" points="250.46,24.91 249.79,25.01 249.47,25.53 251.03,25.73 251.29,25.31 251.57,24.76 "/>
<g>
	<path class="st0" d="M285.3,17.32c0,0,2.35-3.52,3.32-3.85c3.79-1.31,1.11,0.97,1.11,0.97l-1.74,2.77L285.3,17.32z"/>
</g>
<polygon class="st0" points="286.9,17 286.14,17.09 285.3,17.37 287.58,17.83 287.87,17.41 288.18,16.87 "/>
<g>
	<path class="st0" d="M326.91,18.17c0,0,3.42-3.17,4.39-2.94c0.97,0.23,0.76,1.23,0.76,1.23l-2.43,2.18L326.91,18.17z"/>
</g>
<polygon class="st0" points="329.47,18.81 329.92,18.37 328.69,18.14 327.95,18.02 327.46,18.41 329.08,19.12 "/>
<g>
	<path class="st0" d="M349.39,25.1c0,0,2.23-1.29,3.74-1.78c0.53-0.18,0.98-0.26,1.2-0.14c0.87,0.43,0.25,1.46,0.25,1.46l-2.82,1.6
		L349.39,25.1z"/>
</g>
<polygon class="st0" points="351.56,26.36 352.08,26.03 350.96,25.55 350.28,25.28 349.39,25.1 351.11,26.59 "/>
<g>
	<path class="st0" d="M366.08,37.21c0,0,3.87,0.05,5.39,0.55c0.29,0.1,0.5,0.21,0.57,0.34c0.49,0.81-0.61,1.37-0.61,1.37l-3.82-0.1
		L366.08,37.21z"/>
</g>
<polygon class="st0" points="367.35,39.37 368.08,39.37 367.4,38.38 366.97,37.8 366.26,37.74 366.76,39.33 "/>
<g>
	<path class="st0" d="M384.53,43.96c0,0,4.53-1.04,5.23-0.37c0.7,0.67,0.01,1.42,0.01,1.42l-3.17,0.68L384.53,43.96z"/>
</g>
<polygon class="st0" points="386.38,45.75 386.98,45.59 386.05,44.8 385.48,44.34 384.88,44.43 385.88,45.83 "/>
<g>
	<path class="st0" d="M401.37,57.79c0,0,4.63-0.6,5.28,0.15c0.65,0.75-0.1,1.44-0.1,1.44l-3.24,0.37L401.37,57.79z"/>
</g>
<polygon class="st0" points="403.09,59.8 403.7,59.7 402.83,58.8 402.3,58.27 401.67,58.31 402.58,59.83 "/>
<g>
	<path class="st1" d="M129.75,151.63c0.28,0.12,0.57,0.24,0.85,0.36"/>
</g>
<line class="st2" x1="193.07" y1="86.53" x2="142.09" y2="206.63"/>
<line class="st2" x1="141.82" y1="206.44" x2="152.16" y2="210.82"/>
<line class="st2" x1="151.86" y1="210.85" x2="204.56" y2="91.91"/>
<line class="st2" x1="158.56" y1="209" x2="211.04" y2="90.26"/>
<line class="st2" x1="192.77" y1="86.4" x2="204.86" y2="92.03"/>
<line class="st2" x1="199.11" y1="85.09" x2="211.2" y2="90.72"/>
<line class="st2" x1="151.93" y1="210.78" x2="158.77" y2="208.71"/>
<line class="st2" x1="204.67" y1="91.89" x2="211.06" y2="90.55"/>
<line class="st2" x1="192.98" y1="86.46" x2="199.28" y2="85.08"/>
<g>
	<path class="st1" d="M285.4,4.9c-0.12,0.28-0.24,0.57-0.36,0.85"/>
</g>
<line class="st2" x1="350.23" y1="68.09" x2="230.13" y2="17.11"/>
<line class="st2" x1="230.57" y1="17.02" x2="226.34" y2="26.99"/>
<line class="st2" x1="226.34" y1="26.66" x2="345.45" y2="79.43"/>
<line class="st2" x1="228.03" y1="33.71" x2="346.66" y2="86.28"/>
<line class="st2" x1="350.63" y1="67.92" x2="345.16" y2="79.64"/>
<line class="st2" x1="351.94" y1="74.26" x2="346.25" y2="86.48"/>
<line class="st2" x1="226.39" y1="26.8" x2="227.74" y2="33.7"/>
<line class="st2" x1="345.16" y1="79.2" x2="346.35" y2="86.04"/>
<line class="st2" x1="350.62" y1="68.18" x2="351.88" y2="74.4"/>
<g>
	<path class="st3" d="M386.23,183.18c-0.28,0.12-0.57,0.24-0.85,0.36"/>
</g>
<line class="st2" x1="322.91" y1="118.08" x2="373.89" y2="238.18"/>
<line class="st2" x1="374.14" y1="237.91" x2="364.01" y2="242.21"/>
<line class="st2" x1="364.03" y1="242.19" x2="311.42" y2="123.45"/>
<line class="st2" x1="357.6" y1="240.97" x2="304.83" y2="121.85"/>
<line class="st2" x1="323.21" y1="117.95" x2="311.12" y2="123.58"/>
<line class="st2" x1="316.87" y1="116.63" x2="304.78" y2="122.26"/>
<line class="st2" x1="364.33" y1="242.19" x2="357.43" y2="240.84"/>
<line class="st2" x1="311.31" y1="123.43" x2="304.81" y2="122.3"/>
<line class="st2" x1="323.02" y1="117.99" x2="316.7" y2="116.67"/>
<g>
	<path class="st3" d="M202.81,257.39c0.28-0.12,0.57-0.24,0.85-0.36"/>
</g>
<line class="st2" x1="266.14" y1="322.49" x2="215.04" y2="202.13"/>
<line class="st2" x1="215.19" y1="202.46" x2="225.28" y2="198.18"/>
<line class="st2" x1="224.93" y1="198.18" x2="277.62" y2="317.11"/>
<line class="st2" x1="231.42" y1="199.55" x2="284.19" y2="318.66"/>
<line class="st2" x1="265.84" y1="322.62" x2="277.93" y2="316.99"/>
<line class="st2" x1="272.17" y1="323.93" x2="284.27" y2="318.3"/>
<line class="st2" x1="225.07" y1="198.22" x2="231.61" y2="199.74"/>
<line class="st2" x1="277.73" y1="317.14" x2="284.24" y2="318.27"/>
<line class="st2" x1="265.97" y1="322.52" x2="272.43" y2="323.88"/>
<g>
	<path class="st1" d="M437.91,98.57c-0.28-0.12-0.57-0.24-0.85-0.36"/>
</g>
<line class="st2" x1="374.59" y1="163.67" x2="425.5" y2="43.75"/>
<line class="st2" x1="425.21" y1="43.96" x2="415.41" y2="39.8"/>
<line class="st2" x1="415.67" y1="39.66" x2="363.1" y2="158.29"/>
<line class="st2" x1="409.32" y1="40.69" x2="356.4" y2="160.14"/>
<line class="st2" x1="374.89" y1="163.8" x2="362.8" y2="158.17"/>
<line class="st2" x1="368.55" y1="165.11" x2="356.46" y2="159.48"/>
<line class="st2" x1="415.62" y1="39.78" x2="409.11" y2="40.9"/>
<line class="st2" x1="363" y1="158.32" x2="356.49" y2="159.44"/>
<line class="st2" x1="374.74" y1="163.81" x2="368.39" y2="165"/>
<g>
	<path class="st3" d="M483.16,201.25c-0.28-0.12-0.57-0.24-0.85-0.36"/>
</g>
<line class="st2" x1="419.84" y1="266.35" x2="470.82" y2="146.25"/>
<line class="st2" x1="470.79" y1="146.32" x2="460.99" y2="142.16"/>
<line class="st2" x1="461.05" y1="142.04" x2="408.35" y2="260.98"/>
<line class="st2" x1="454.35" y1="143.89" x2="401.78" y2="262.52"/>
<line class="st2" x1="420.14" y1="266.48" x2="408.04" y2="260.85"/>
<line class="st2" x1="413.8" y1="267.8" x2="401.71" y2="262.17"/>
<line class="st2" x1="460.86" y1="142.46" x2="454.36" y2="143.59"/>
<line class="st2" x1="408.24" y1="261" x2="401.85" y2="262.3"/>
<line class="st2" x1="419.99" y1="266.72" x2="413.69" y2="267.79"/>
<g>
	<path class="st0" d="M335.15,14.16c0,0,1.02-0.25-0.68-0.08c-1.46,0.15-1.25,0.13-2.39,0.61c-1.14,0.48-1.64,0.75-1.64,0.75
		l0.18,1.26l1.89,0.25l1.59-0.63l1.29-1.26L335.15,14.16z"/>
	<path class="st0" d="M356.52,22.2c1.79-0.7-4.01,1.31-4.01,1.31s0.05,1.17,0.83,1.34c0.78,0.17,0.53,0.26,1.96,0
		c1.44-0.26,1.44-0.82,1.55-1.32s0.19-0.85,0-1C356.67,22.38,356.52,22.2,356.52,22.2"/>
	<path class="st0" d="M359.56,19.83c0,0-6.41,3.36-7.05,3.7c-0.65,0.33,2.04,1.12,2.04,1.12l5.01-2.25l0.15-2.3L359.56,19.83z"/>
	<path class="st0" d="M373.03,37.8c0.88-0.02-1.71-0.05-1.87-0.12c-0.15-0.08-0.13,0.91-0.13,0.91l1.34,0.33l0.63-0.23L373.03,37.8z
		"/>
	<path class="st0" d="M387.95,45.18l0.65-1.82c0,0,1.69-0.24,3.96,0.11c2.27,0.35,1.13,1.12,1.13,1.12l-2.73,0.82L387.95,45.18z"/>
	<path class="st0" d="M404.33,57.57c0,0,4.23-0.19,5.44,0c1.21,0.2-2.72,3.02-2.72,3.02l-4.16,0.45c0,0-1.36-0.1-2.7-0.65
		C398.86,59.83,404.33,57.57,404.33,57.57"/>
</g>
<rect x="400.4" y="59.65" class="st0" width="1.76" height="1.89"/>
<rect x="250.57" y="24.75" class="st0" width="2.38" height="1.61"/>
<g>
	<path class="st0" d="M236.05,27.67c0,0,0.98-2.37,1.54-3.32c0.55-0.96,0.71,0.15,0.71,0.15s0.1,2.92,0,2.92s-1.66,0.84-1.66,0.84
		L236.05,27.67z"/>
	<path class="st0" d="M237.54,21.77c0,0-1.92,6.86-2.02,7.31c-0.1,0.45,0.53,1.26,0.53,1.26l2.14-1.81l0.15-4.57L237.54,21.77z"/>
	<path class="st0" d="M249.29,24.85c0,0,3.33-6.65,5.04-8.82c1.71-2.17,0,4.94,0,4.94l-3.38,2.77L249.29,24.85z"/>
	<path class="st0" d="M269.87,19.48c0,0,3.96-5.9,5.07-8.48c1.11-2.58,0.15,6.83,0,6.83s-3.12,0.27-3.12,0.27L269.87,19.48z"/>
	<path class="st0" d="M272.27,19.61c0,0,1.06-1.66,1.66-3.09c0.6-1.43-1.81,0.56-1.81,0.56l-2.25,2.41L272.27,19.61"/>
	<path class="st0" d="M269.6,20.41c0,0,0.2-1.43,0.98-2.02c0.78-0.59,0.53,1.59,0.53,1.59L269.6,20.41z"/>
	<path class="st0" d="M270.17,18.9c0,0,1.93-3.12,2.49-3.7c0.56-0.58,0,2.29,0,2.29L270.17,18.9z"/>
	<path class="st0" d="M268.59,28.26c0,0,3.04-2.17,3.93-3.16c0.89-0.99,1.71-7.31,1.71-7.31l-1.27-0.56l-1.84,1.49l-2.54,7.25V28.26
		z"/>
</g>
</svg>
