<?xml version="1.0" encoding="utf-8"?>
<!-- Generator: Adobe Illustrator 22.0.0, SVG Export Plug-In . SVG Version: 6.00 Build 0)  -->
<svg version="1.1" id="Capa_1" xmlns="http://www.w3.org/2000/svg" xmlns:xlink="http://www.w3.org/1999/xlink" x="0px" y="0px"
	 viewBox="0 0 61.2 61.2" style="enable-background:new 0 0 61.2 61.2;" xml:space="preserve">
<style type="text/css">
	.st0{fill:#FFFFFF;}
</style>
<path class="st0" d="M50.2,37.6h-7.2l3-4.4c5.8-7.7,4.9-20.3-1.8-27c-3.6-3.6-8.4-5.6-13.6-5.6c-5.1,0-9.9,2-13.6,5.6
	c-6.7,6.7-7.5,19.3-1.8,27l3.1,4.4H11l-11,23h61.2L50.2,37.6z M30.9,12.6c3.9,0,7,3.1,7,7s-3.1,7-7,7s-7-3.1-7-7
	S27.1,12.6,30.9,12.6z M12.2,39.6h7.6l10.9,15.8l10.9-15.8H49l9,19H3.2L12.2,39.6z"/>
</svg>
